<?xml version="1.0" encoding="UTF-8"?>
<svg width="36px" height="24px" viewBox="0 0 36 24" version="1.1" xmlns="http://www.w3.org/2000/svg" xmlns:xlink="http://www.w3.org/1999/xlink">
    <!-- Generator: Sketch 49.3 (51167) - http://www.bohemiancoding.com/sketch -->
    <title>np_arrow_821432_000000</title>
    <desc>Created with Sketch.</desc>
    <defs></defs>
    <g id="New-Site" stroke="none" stroke-width="1" fill="none" fill-rule="evenodd">
        <g id="WORK" transform="translate(-20.000000, -21.000000)" fill="#000000" fill-rule="nonzero">
            <g id="np_arrow_821432_000000" transform="translate(20.000000, 21.000000)">
                <polygon id="Shape" points="14.5 20 9.46958108 14.645 35.9404054 14.645 35.9404054 10.025 9.46958108 10.025 15.5 4 12.222827 0.733528 0.595151351 12.334868 11.222827 23.266208"></polygon>
            </g>
        </g>
    </g>
</svg>