<?xml version="1.0" encoding="UTF-8"?>
<svg viewBox="0 0 23 36" version="1.1" xmlns="http://www.w3.org/2000/svg" xmlns:xlink="http://www.w3.org/1999/xlink">
    <defs></defs>
    <g id="New-Site" stroke="none" stroke-width="1" fill="none" fill-rule="evenodd">
        <g id="HOMEPAGE" transform="translate(-693.000000, -794.000000)" fill="#FFFFFF" fill-rule="nonzero">
            <g id="INTRO-">
                <polygon id="Shape" transform="translate(704.670526, 812.261314) rotate(-90.000000) translate(-704.670526, -812.261314) " points="700.903195 820.260495 695.873374 814.906132 722.341051 814.906132 722.341051 810.286681 695.873374 810.286681 701.903076 804.262397 698.626293 800.996314 687 812.596274 697.626412 823.526315"></polygon>
            </g>
        </g>
    </g>
</svg>